[{ 
	"directory":"/home/me/.workspace-1/contest/adventoc/2021/day-19", 
	"command":"/usr/bin/clang++ --std=c++2a -fdiagnostics-color=always  -Wall -Wno-reorder -Wno-sign-compare -Wno-unused-variable -g  -I../include day-19.cpp", 
	"file":"day-19.cpp" 
}]
